{
  "type": "service_account",
  "project_id": "gsight",
  "private_key_id": "a97ef909c31a1f2df6e48efd1006ab242c6d30e1",
  "private_key": "-----BEGIN PRIVATE KEY-----\nMIIEvQIBADANBgkqhkiG9w0BAQEFAASCBKcwggSjAgEAAoIBAQCJZDvrYPTPTehZ\ndw01VlZFjgZBEPDrIi8hUKhghnB7AXx64k9CY2SQGBXNgY2excCZiZZnVxx/Q0/A\nqe0COHRsZ796UmaYtIreg3TdVkAY32OPLeXMVpd+h82+q9o7WMldZhZRRPGtFxrh\nu5pkI3qwnYEeFzOIpbjGHy9EcUuCepgWYpqmqV8t5Cr8Wql3NWDPaptjpMNWBNsM\neqzSWzwhF5u79ftzMqazodme+GotmL1oBI9qknFRkZhVdfIdN/zw+ZFvZ9no+jy5\nrHIZ/EIodSNIKizxu1fP1wPMBdqhOklYvJ62nFNuyO1QA1fjQROEJeoffvOY9ndd\nNaEWU6H/AgMBAAECggEAJE+F2IT03m74J+DjcEPDpDlPZNXd3j7YFuVywqP1SUUQ\nyYdTLDgJhV2gMYJ6U8puxwVKZ0BqCyZWhxRBy9Lwzg+zVtg9PkGE7B7w/WhEo24y\nqU4XjCQcgLfShAB2OjYSbelDn7Hpb3YKSDtlJ+8Kh2/xBmtaVtR5m371ZpDMxIxP\n0FdtSvlu9bEkaWZIi06v2hmAS4nDjoM7+Vgvg++OHrXghhiBeYSEOHHbKsPw5+Cp\nXmrOR2GTMDB2CodwBDujx4Nd2HP3SkE4R4RxdStN6q739bW6y3XUIDMIPcYYR7Jd\nmXGK6Ui1gnW6puR+e6pR3hwxX44hI91jEa42ENz1rQKBgQC89Qt2F7ffLDIJDtxu\nA4Lu/gRnx3ktvjVmzXTR4T8WNA8cd5KdY5mGfMKtElfuXQ7G6PHSp41zVPBWK+8P\n2V+G2n7c0cITaf/YMYzXlFOsCTAdlmKDB63W8vxsP1r+XGoYnLK8XX9Kl/74Y7Ti\nSUz1xaah0f2ExYyZYBiyMvAVvQKBgQC6I3zDhUYWguNIT6riS+11oIQWsw51Z7Q4\nyM0hiZxZvcQoVJ+tSEXZzz8xF6mSKFMjut0iV9nCVIScbqlV9E3BrcJ3IglPEaYl\nLEp7M4VwGa81UigkKITytOLNogyjS1gLnAt5pd117dH89Ezm45lE9PvBAFphfJ+8\nBdvWbu98awKBgDUhwkNGkBFU4Azj/N+CZULGcn6r/Er8fQ+XHg4WBCM+KDGc/cD7\nzKOgWS1JRyhjSlBsF/Nf4cpYS+wvFl2ihdXpglqdMLE80Q/9ftjvgEeTnc/0BWdK\ntXsHgCr/9ZooajzZcvi8YZqb+rnlb2thqR5CoYRHA75dvhcyij8xS4kRAoGAXQLW\nmSzDdQQ6ZivJDAM8yQZIer9GfkwvtiBAwH1u7zjwB+chUwlGPixdOz7DsRENWlFJ\nppuXaI+rJC/31ceaAym8fqM3W5dKGlEjdqSsDPQIpPBEtqy4oj7ZBj/vaLmBaWu0\nIDlNjFwmDexVcRpRwC9ajXqLryMC/oU+8MvGR7kCgYEAlZqWqGXEYoBL0XxoCht0\nBWIKJZAB82cCF1794VBnC2q2SuIO30VUhfTeRs5TOG6ov+pwj2tu76SS1GhhFtyo\nZ6NzdVKlY6FQrxe3x7/pe/desplfOGHfb8ph4nHmDD/bABdWyz47zwSgEractqNk\nYxgNfmffePCOfs5BQinoLT4=\n-----END PRIVATE KEY-----\n",
  "client_email": "gsight-public@gsight.iam.gserviceaccount.com",
  "client_id": "106971002313493007946",
  "auth_uri": "https://accounts.google.com/o/oauth2/auth",
  "token_uri": "https://oauth2.googleapis.com/token",
  "auth_provider_x509_cert_url": "https://www.googleapis.com/oauth2/v1/certs",
  "client_x509_cert_url": "https://www.googleapis.com/robot/v1/metadata/x509/gsight-public%40gsight.iam.gserviceaccount.com",
  "universe_domain": "googleapis.com"
}
